[
    {
        "pkIdService": 100,
        "serviceName": "Soporte Datacenter",
        "serviceType": "Infraestructura",
        "serviceDescription": "El cliente necesita configurar 1 CISCO NEXUS CX1 y Creacion de un cluster de Servidores Vmware",
        "serviceCreation": "2012-06-18T10:34:09",
        "serviceEquipment": false,
        "serviceStart": "2013-06-18T10:34:09",
        "serviceEnd": "2014-06-18T10:34:09",
        "idClient": "100",
        "clientContract": "IMPRG100",
        "activities": []
    },
    {
        "pkIdService": 200,
        "serviceName": "Consultoria Seguridad",
        "serviceType": "Seguridad",
        "serviceDescription": "Ethical Hacking a aplicaciones web",
        "serviceCreation": "2013-06-18T10:34:09",
        "serviceEquipment": false,
        "serviceStart": "2014-06-18T10:34:09",
        "serviceEnd": "2015-06-18T10:34:09",
        "idClient": "200",
        "clientContract": "IMPRG200",
        "activities": []
    },
    {
        "pkIdService": 300,
        "serviceName": "Soporte 24x7",
        "serviceType": "Soporte N3",
        "serviceDescription": "Atencion de requerimientos de instalacion, parchado, fuera de horalio de oficiona",
        "serviceCreation": "2014-06-18T10:34:09",
        "serviceEquipment": false,
        "serviceStart": "2015-06-18T10:34:09",
        "serviceEnd": "2016-06-18T10:34:09",
        "idClient": "300",
        "clientContract": "IMPRG300",
        "activities": []
    }
]