{
    "pkIdService": 200,
    "serviceName": "Consultoria Seguridad",
    "serviceType": "Seguridad",
    "serviceDescription": "Ethical Hacking a aplicaciones web",
    "serviceCreation": "2013-06-18T10:34:09",
    "serviceEquipment": false,
    "serviceStart": "2014-06-18T10:34:09",
    "serviceEnd": "2015-06-18T10:34:09",
    "idClient": "200",
    "clientContract": "IMPRG200"
}